module image

go 1.17

require (
	github.com/gin-gonic/gin v1.7.4
	github.com/gofiber/fiber/v2 v2.20.2
	github.com/julienschmidt/httprouter v1.3.0
	github.com/lib/pq v1.10.3
	github.com/rileyr/middleware v0.0.0-20200807231548-33fa83c97727
	github.com/sirupsen/logrus v1.8.1
	gopkg.in/h2non/bimg.v1 v1.1.5
	gorm.io/driver/postgres v1.1.2
	gorm.io/gorm v1.21.16
)

require (
	github.com/andybalholm/brotli v1.0.2 // indirect
	github.com/gin-contrib/sse v0.1.0 // indirect
	github.com/go-playground/locales v0.13.0 // indirect
	github.com/go-playground/universal-translator v0.17.0 // indirect
	github.com/go-playground/validator/v10 v10.4.1 // indirect
	github.com/golang/protobuf v1.3.3 // indirect
	github.com/jackc/chunkreader/v2 v2.0.1 // indirect
	github.com/jackc/pgconn v1.10.0 // indirect
	github.com/jackc/pgio v1.0.0 // indirect
	github.com/jackc/pgpassfile v1.0.0 // indirect
	github.com/jackc/pgproto3/v2 v2.1.1 // indirect
	github.com/jackc/pgservicefile v0.0.0-20200714003250-2b9c44734f2b // indirect
	github.com/jackc/pgtype v1.8.1 // indirect
	github.com/jackc/pgx/v4 v4.13.0 // indirect
	github.com/jinzhu/inflection v1.0.0 // indirect
	github.com/jinzhu/now v1.1.2 // indirect
	github.com/json-iterator/go v1.1.9 // indirect
	github.com/klauspost/compress v1.13.4 // indirect
	github.com/leodido/go-urn v1.2.0 // indirect
	github.com/mattn/go-isatty v0.0.12 // indirect
	github.com/modern-go/concurrent v0.0.0-20180228061459-e0a39a4cb421 // indirect
	github.com/modern-go/reflect2 v0.0.0-20180701023420-4b7aa43c6742 // indirect
	github.com/ugorji/go/codec v1.1.7 // indirect
	github.com/valyala/bytebufferpool v1.0.0 // indirect
	github.com/valyala/fasthttp v1.29.0 // indirect
	github.com/valyala/tcplisten v1.0.0 // indirect
	golang.org/x/crypto v0.0.0-20210921155107-089bfa567519 // indirect
	golang.org/x/sys v0.0.0-20210615035016-665e8c7367d1 // indirect
	golang.org/x/text v0.3.7 // indirect
	gopkg.in/yaml.v2 v2.2.8 // indirect
)
